Analiza składu jeziora
…
# ITS
dane$ITS <- dane$ph + 0.013 * (100-dane$nas) 
its_values <- sort(dane$ITS)
its_values

 [1] 7.64986 7.73416 7.76419 7.77787 7.81359 7.82145 7.88450 7.94118 7.95309
[10] 7.96315 7.97166 7.97654 7.99441 7.99584 8.00107 8.03777 8.06536 8.07738
[19] 8.08749 8.09210 8.10793 8.16250 8.16529 8.17592 8.23520 8.35333 8.35370
[28] 8.39958 8.40419 8.42151 8.42697 8.44417 8.44446 8.48238 8.49782 8.51462
[37] 8.51849 8.51969 8.52560 8.57231 8.61330 8.65424 8.68388 8.71215 8.74361
[46] 8.76815 8.82574 8.86785 8.89622 8.94338 8.94523

dane

# A tibble: 51 × 8
    chla  temp   bar   nas przew    ph namon   ITS
   <dbl> <dbl> <dbl> <dbl> <dbl> <dbl> <dbl> <dbl>
 1   1.1  12      10  80.8   176  7.4  0.1    7.65
 2   2.5  15.2    20  89.7   157  7.6  0.1    7.73
 3   8.6  19       5  87.5   207  8    0.05   8.16
 4   2.3  19.5    10  83.5   189  7.67 0.05   7.88
 5   7.5  12       0 108.    122  8.2  0.004  8.09
 6  10.3  21.5     5  94.2   202  8.1  0.14   8.18
 7   3.7  12.5    20  83.6   181  7.6  0.1    7.81
 8   8.6  15.6    10  87.4   155  7.8  0.1    7.96
 9  39.2  15.2    20 108.    206  8.1  0.2    8.00
10  19    19      40 100.    191  8    0      8.00
# ℹ 41 more rows
…
